HW3 Tidy Data – BIOL 607/617 Assignments
…
4 Kelp

4a.

kelp_trim <- 
  kelp_nd |>
  select(YEAR, SITE, TRANSECT, PERCENT_COVER, FAMILY, SPECIES)
kelp_trim

# A tibble: 6,222 × 6
    YEAR SITE        TRANSECT PERCENT_COVER FAMILY        SPECIES               
   <dbl> <chr>       <chr>            <dbl> <chr>         <chr>                 
 1  2014 Baker North 1                 2.5  Anomiidae     Anomia                
 2  2014 Baker North 1                 7.5  <NA>          <NA>                  
 3  2014 Baker North 1                 2.5  <NA>          Barnacle              
 4  2014 Baker North 1                10    <NA>          <NA>                  
 5  2014 Baker North 1                21.2  <NA>          <NA>                  
 6  2014 Baker North 1                 1.25 Styelidae     Botryllus schlosseri  
 7  2014 Baker North 1                 1.25 Styelidae     Botrylloides violaceus
 8  2014 Baker North 1                18.8  <NA>          <NA>                  
 9  2014 Baker North 1                21.2  <NA>          <NA>                  
10  2014 Baker North 1                 7.5  Calyptraeidae Crepidula fornicata   
# ℹ 6,212 more rows

4b.

kelp_trimer <- 
  kelp_trim |>
  filter(FAMILY == "Laminariaceae") |>
  select(!FAMILY)
kelp_trimer

# A tibble: 345 × 5
    YEAR SITE        TRANSECT PERCENT_COVER SPECIES             
   <dbl> <chr>       <chr>            <dbl> <chr>               
 1  2014 Baker North 1                 77.5 Saccharina latissima
 2  2014 Baker North 2                 86.2 Saccharina latissima
 3  2014 Baker North 3                 31.2 Saccharina latissima
 4  2014 Baker North 3                  7.5 Saccharina latissima
 5  2014 Baker North 4                 55   Saccharina latissima
 6  2014 Baker South 3                 36.2 Saccharina latissima
 7  2014 Baker South 3                 22.5 Saccharina latissima
 8  2014 Baker South 4                 32.5 Saccharina latissima
 9  2014 Baker South 4                 11.2 Saccharina latissima
10  2014 Baker South 1                 35   Saccharina latissima
# ℹ 335 more rows

4c.

No there are two measurements per species transect each year.

4d.

kelp_cover <- 
kelp_trimer |>
  group_by(TRANSECT,SITE,YEAR) |>
  summarize(sum_cover = sum(as.numeric(PERCENT_COVER)))
kelp_cover

# A tibble: 238 × 4
# Groups:   TRANSECT, SITE [63]
   TRANSECT SITE         YEAR sum_cover
   <chr>    <chr>       <dbl>     <dbl>
 1 1        Baker North  2014      77.5
 2 1        Baker North  2015      96.2
 3 1        Baker North  2016      55  
 4 1        Baker North  2017      56.2
 5 1        Baker North  2018      33.8
 6 1        Baker South  2014      50  
 7 1        Baker South  2015      70  
 8 1        Baker South  2016      56.2
 9 1        Baker South  2017      26.2
10 1        Baker South  2018      27.5
# ℹ 228 more rows
…
kelp_wide_prep <- 
  kelp_trimer |>
  group_by(TRANSECT,SITE,YEAR, SPECIES) |>
  summarize(sum_cover = sum(PERCENT_COVER, na.rm = TRUE))

kelp_wide <- 
  kelp_wide_prep |>
  group_by(SPECIES, sum_cover) |>
  pivot_wider(names_from = SPECIES,
              values_from = sum_cover)
kelp_wide[is.na(kelp_wide)] = 0
kelp_wide

# A tibble: 238 × 5
   TRANSECT SITE         YEAR `Saccharina latissima` `Laminaria digitata`
   <chr>    <chr>       <dbl>                  <dbl>                <dbl>
 1 1        Baker North  2014                   77.5                    0
 2 1        Baker North  2015                   96.2                    0
 3 1        Baker North  2016                   55                      0
 4 1        Baker North  2017                   56.2                    0
 5 1        Baker North  2018                   33.8                    0
 6 1        Baker South  2014                   50                      0
 7 1        Baker South  2015                   70                      0
 8 1        Baker South  2016                   56.2                    0
 9 1        Baker South  2017                   26.2                    0
10 1        Baker South  2018                   27.5                    0
# ℹ 228 more rows
…
