HW4 Sampling – BIOL 607/617 Assignments
…
ps_setup <- expand.grid(sims = 1:1000, rate = c(0.2, 0.5, 1, 2, 4)) |>
  as_tibble()

2b.

set.seed(0603)

sample_tibz <- ps_setup |>
  group_by(sims, rate) |>
  reframe(sample = rnorm(10)) |>
  unnest(sample)
sample_tibz

# A tibble: 50,000 × 3
    sims  rate  sample
   <int> <dbl>   <dbl>
 1     1   0.2  1.65  
 2     1   0.2 -0.347 
 3     1   0.2 -0.0985
 4     1   0.2  0.937 
 5     1   0.2  0.223 
 6     1   0.2  2.70  
 7     1   0.2 -0.517 
 8     1   0.2 -1.04  
 9     1   0.2 -0.0744
10     1   0.2  2.17  
# ℹ 49,990 more rows

2c.

summary_tibz <- sample_tibz |>
  group_by(sims, rate) |>
  summarise(
    mean = mean(sample),
    median = median(sample),
    sd = sd(sample),
    .groups = "drop")
summary_tibz

# A tibble: 5,000 × 5
    sims  rate    mean  median    sd
   <int> <dbl>   <dbl>   <dbl> <dbl>
 1     1   0.2  0.561   0.0741 1.25 
 2     1   0.5  0.166  -0.0700 1.30 
 3     1   1   -0.0639  0.0367 0.690
 4     1   2   -0.645  -0.892  1.19 
 5     1   4    0.0819  0.0969 0.688
 6     2   0.2  0.225   0.300  0.803
 7     2   0.5  0.264   0.0419 0.951
 8     2   1   -0.664  -0.966  1.01 
 9     2   2    0.153   0.461  1.34 
10     2   4    0.0957  0.106  0.920
# ℹ 4,990 more rows
…
